simulation/qsim/vgacontroller.msim.vcd
$comment
	File created using the following command:
		vcd file vgacontroller.msim.vcd -direction
$end
$date
	Thu Sep 29 20:19:46 2016
$end
$version
	ModelSim Version 10.4d
$end
$timescale
	1ps
$end

$scope module counter_sync_test_vlg_vec_tst $end
$var reg 1 ! clearHC $end
$var reg 1 " clearVC $end
$var reg 1 # clk $end
$var reg 1 $ enableHC $end
$var wire 1 % count_value_HC [11] $end
$var wire 1 & count_value_HC [10] $end
$var wire 1 ' count_value_HC [9] $end
$var wire 1 ( count_value_HC [8] $end
$var wire 1 ) count_value_HC [7] $end
$var wire 1 * count_value_HC [6] $end
$var wire 1 + count_value_HC [5] $end
$var wire 1 , count_value_HC [4] $end
$var wire 1 - count_value_HC [3] $end
$var wire 1 . count_value_HC [2] $end
$var wire 1 / count_value_HC [1] $end
$var wire 1 0 count_value_HC [0] $end
$var wire 1 1 count_value_VC [11] $end
$var wire 1 2 count_value_VC [10] $end
$var wire 1 3 count_value_VC [9] $end
$var wire 1 4 count_value_VC [8] $end
$var wire 1 5 count_value_VC [7] $end
$var wire 1 6 count_value_VC [6] $end
$var wire 1 7 count_value_VC [5] $end
$var wire 1 8 count_value_VC [4] $end
$var wire 1 9 count_value_VC [3] $end
$var wire 1 : count_value_VC [2] $end
$var wire 1 ; count_value_VC [1] $end
$var wire 1 < count_value_VC [0] $end

$scope module i1 $end
$var wire 1 = gnd $end
$var wire 1 > vcc $end
$var wire 1 ? unknown $end
$var tri1 1 @ devclrn $end
$var tri1 1 A devpor $end
$var tri1 1 B devoe $end
$var wire 1 C count_value_HC[0]~output_o $end
$var wire 1 D count_value_HC[1]~output_o $end
$var wire 1 E count_value_HC[2]~output_o $end
$var wire 1 F count_value_HC[3]~output_o $end
$var wire 1 G count_value_HC[4]~output_o $end
$var wire 1 H count_value_HC[5]~output_o $end
$var wire 1 I count_value_HC[6]~output_o $end
$var wire 1 J count_value_HC[7]~output_o $end
$var wire 1 K count_value_HC[8]~output_o $end
$var wire 1 L count_value_HC[9]~output_o $end
$var wire 1 M count_value_HC[10]~output_o $end
$var wire 1 N count_value_HC[11]~output_o $end
$var wire 1 O count_value_VC[0]~output_o $end
$var wire 1 P count_value_VC[1]~output_o $end
$var wire 1 Q count_value_VC[2]~output_o $end
$var wire 1 R count_value_VC[3]~output_o $end
$var wire 1 S count_value_VC[4]~output_o $end
$var wire 1 T count_value_VC[5]~output_o $end
$var wire 1 U count_value_VC[6]~output_o $end
$var wire 1 V count_value_VC[7]~output_o $end
$var wire 1 W count_value_VC[8]~output_o $end
$var wire 1 X count_value_VC[9]~output_o $end
$var wire 1 Y count_value_VC[10]~output_o $end
$var wire 1 Z count_value_VC[11]~output_o $end
$var wire 1 [ clk~input_o $end
$var wire 1 \ clk~inputclkctrl_outclk $end
$var wire 1 ] enableHC~input_o $end
$var wire 1 ^ clearHC~input_o $end
$var wire 1 _ HC|counter_head|comb~0_combout $end
$var wire 1 ` HC|counter_head|dff_reg~q $end
$var wire 1 a HC|gen_dffs:1:counter|comb~0_combout $end
$var wire 1 b HC|gen_dffs:1:counter|dff_reg~q $end
$var wire 1 c HC|gen_dffs:2:counter|comb~0_combout $end
$var wire 1 d HC|gen_dffs:2:counter|comb~1_combout $end
$var wire 1 e HC|gen_dffs:2:counter|dff_reg~q $end
$var wire 1 f HC|gen_dffs:2:counter|out_enable~combout $end
$var wire 1 g HC|gen_dffs:3:counter|comb~0_combout $end
$var wire 1 h HC|gen_dffs:3:counter|dff_reg~q $end
$var wire 1 i HC|gen_dffs:4:counter|comb~0_combout $end
$var wire 1 j HC|gen_dffs:4:counter|dff_reg~q $end
$var wire 1 k HC|gen_dffs:5:counter|comb~0_combout $end
$var wire 1 l HC|gen_dffs:5:counter|comb~1_combout $end
$var wire 1 m HC|gen_dffs:5:counter|dff_reg~q $end
$var wire 1 n HC|gen_dffs:5:counter|out_enable~combout $end
$var wire 1 o HC|gen_dffs:6:counter|comb~0_combout $end
$var wire 1 p HC|gen_dffs:6:counter|dff_reg~q $end
$var wire 1 q HC|gen_dffs:7:counter|comb~0_combout $end
$var wire 1 r HC|gen_dffs:7:counter|dff_reg~q $end
$var wire 1 s HC|gen_dffs:8:counter|comb~0_combout $end
$var wire 1 t HC|gen_dffs:8:counter|comb~1_combout $end
$var wire 1 u HC|gen_dffs:8:counter|dff_reg~q $end
$var wire 1 v HC|gen_dffs:8:counter|out_enable~combout $end
$var wire 1 w HC|gen_dffs:9:counter|comb~0_combout $end
$var wire 1 x HC|gen_dffs:9:counter|dff_reg~q $end
$var wire 1 y HC|gen_dffs:10:counter|comb~0_combout $end
$var wire 1 z HC|gen_dffs:10:counter|dff_reg~q $end
$var wire 1 { HC|gen_dffs:11:counter|comb~0_combout $end
$var wire 1 | HC|gen_dffs:11:counter|comb~1_combout $end
$var wire 1 } HC|gen_dffs:11:counter|dff_reg~q $end
$var wire 1 ~ clearVC~input_o $end
$var wire 1 !! comb~1_combout $end
$var wire 1 "! comb~2_combout $end
$var wire 1 #! comb~0_combout $end
$var wire 1 $! Hv|counter_head|comb~0_combout $end
$var wire 1 %! Hv|counter_head|comb~1_combout $end
$var wire 1 &! Hv|counter_head|dff_reg~q $end
$var wire 1 '! Hv|counter_head|out_enable~combout $end
$var wire 1 (! Hv|gen_dffs:1:counter|comb~0_combout $end
$var wire 1 )! Hv|gen_dffs:1:counter|dff_reg~q $end
$var wire 1 *! Hv|gen_dffs:2:counter|comb~0_combout $end
$var wire 1 +! Hv|gen_dffs:2:counter|dff_reg~q $end
$var wire 1 ,! Hv|gen_dffs:3:counter|comb~0_combout $end
$var wire 1 -! Hv|gen_dffs:3:counter|comb~1_combout $end
$var wire 1 .! Hv|gen_dffs:3:counter|dff_reg~q $end
$var wire 1 /! Hv|gen_dffs:3:counter|out_enable~0_combout $end
$var wire 1 0! Hv|gen_dffs:3:counter|out_enable~combout $end
$var wire 1 1! Hv|gen_dffs:4:counter|comb~0_combout $end
$var wire 1 2! Hv|gen_dffs:4:counter|dff_reg~q $end
$var wire 1 3! Hv|gen_dffs:5:counter|comb~0_combout $end
$var wire 1 4! Hv|gen_dffs:5:counter|dff_reg~q $end
$var wire 1 5! Hv|gen_dffs:6:counter|comb~0_combout $end
$var wire 1 6! Hv|gen_dffs:6:counter|comb~1_combout $end
$var wire 1 7! Hv|gen_dffs:6:counter|dff_reg~q $end
$var wire 1 8! Hv|gen_dffs:6:counter|out_enable~combout $end
$var wire 1 9! Hv|gen_dffs:7:counter|comb~0_combout $end
$var wire 1 :! Hv|gen_dffs:7:counter|dff_reg~q $end
$var wire 1 ;! Hv|gen_dffs:8:counter|comb~0_combout $end
$var wire 1 <! Hv|gen_dffs:8:counter|dff_reg~q $end
$var wire 1 =! Hv|gen_dffs:9:counter|comb~0_combout $end
$var wire 1 >! Hv|gen_dffs:9:counter|comb~1_combout $end
$var wire 1 ?! Hv|gen_dffs:9:counter|dff_reg~q $end
$var wire 1 @! Hv|gen_dffs:9:counter|out_enable~combout $end
$var wire 1 A! Hv|gen_dffs:10:counter|comb~0_combout $end
$var wire 1 B! Hv|gen_dffs:10:counter|dff_reg~q $end
$var wire 1 C! Hv|gen_dffs:11:counter|comb~0_combout $end
$var wire 1 D! Hv|gen_dffs:11:counter|dff_reg~q $end
$upscope $end
$upscope $end
$enddefinitions $end
#0
$dumpvars
1!
1"
0#
1$
00
0/
0.
0-
0,
0+
0*
0)
0(
0'
0&
0%
0<
0;
0:
09
08
07
06
05
04
03
02
01
0=
1>
x?
1@
1A
1B
0C
0D
0E
0F
0G
0H
0I
0J
0K
0L
0M
0N
0O
0P
0Q
0R
0S
0T
0U
0V
0W
0X
0Y
0Z
0[
0\
1]
1^
0_
0`
0a
0b
0c
0d
0e
0f
0g
0h
0i
0j
0k
0l
0m
0n
0o
0p
0q
0r
0s
0t
0u
0v
0w
0x
0y
0z
0{
0|
0}
1~
1!!
1"!
0#!
0$!
0%!
0&!
0'!
0(!
0)!
0*!
0+!
0,!
0-!
0.!
0/!
00!
01!
02!
03!
04!
05!
06!
07!
08!
09!
0:!
0;!
0<!
0=!
0>!
0?!
0@!
0A!
0B!
0C!
0D!
$end
#5000
1#
1[
1\
#10000
0!
0"
0#
0^
0~
0[
0\
1_
#15000
1#
1[
1\
1`
1C
10
1a
0_
#20000
0#
0[
0\
#25000
1#
1[
1\
1b
0`
0C
1D
1/
00
1_
#30000
0#
0[
0\
#35000
1#
1[
1\
1`
1C
1c
10
0a
0_
1d
#40000
0#
0[
0\
#45000
1#
1[
1\
1e
0b
0`
0C
0D
1E
1.
0/
00
1_
#50000
0#
0[
0\
#55000
1#
1[
1\
1`
1C
10
1a
0_
#60000
0#
0[
0\
#65000
1#
1[
1\
1b
0`
0C
1D
1/
00
1_
#70000
0#
0[
0\
#75000
1#
1[
1\
1`
1C
1f
0c
10
0a
0_
1g
0d
#80000
0#
0[
0\
#85000
1#
1[
1\
1h
0e
0b
0`
0C
0D
0E
1F
0f
1-
0.
0/
00
1i
0g
1_
0i
1g
#90000
0#
0[
0\
#95000
1#
1[
1\
1`
1C
10
1a
0_
#100000
0#
0[
0\
#105000
1#
1[
1\
1b
0`
0C
1D
1#!
1/
00
1_
1$!
1%!
#110000
0#
0[
0\
#115000
1#
1[
1\
1&!
1`
1C
1O
1'!
0$!
0#!
1c
1<
10
0a
0_
0'!
1$!
1(!
0%!
1d
0(!
1%!
#120000
0#
0[
0\
#125000
1#
1[
1\
1e
0b
0`
0C
0D
1E
1.
0/
00
1_
#130000
0#
0[
0\
#135000
1#
1[
1\
1`
1C
10
1a
0_
#140000
0#
0[
0\
#145000
1#
1[
1\
1b
0`
0C
1D
1/
00
1_
#150000
0#
0[
0\
#155000
1#
1[
1\
1`
1C
1f
0c
10
0a
0_
1i
0g
0d
#160000
0#
0[
0\
#165000
1#
1[
1\
1j
0h
0e
0b
0`
0C
0D
0E
0F
1G
0!!
0f
1,
0-
0.
0/
00
1g
1_
0g
#170000
0#
0[
0\
#175000
1#
1[
1\
1`
1C
10
1a
0_
#180000
0#
0[
0\
#185000
1#
1[
1\
1b
0`
0C
1D
1/
00
1_
#190000
0#
0[
0\
#195000
1#
1[
1\
1`
1C
1c
10
0a
0_
1d
#200000
0#
0[
0\
#205000
1#
1[
1\
1e
0b
0`
0C
0D
1E
1.
0/
00
1_
#210000
0#
0[
0\
#215000
1#
1[
1\
1`
1C
10
1a
0_
#220000
0#
0[
0\
#225000
1#
1[
1\
1b
0`
0C
1D
1/
00
1_
#230000
0#
0[
0\
#235000
1#
1[
1\
1`
1C
1f
0c
10
0a
0_
1g
0d
#240000
0#
0[
0\
#245000
1#
1[
1\
1h
0e
0b
0`
0C
0D
0E
1F
1k
0f
1-
0.
0/
00
0i
0g
1_
0k
1l
1i
1g
0l
#250000
0#
0[
0\
#255000
1#
1[
1\
1`
1C
10
1a
0_
#260000
1!
0#
1^
0[
0\
0i
0g
0a
#265000
1#
1[
1\
0j
0h
0`
0C
0F
0G
1!!
0,
0-
00
#270000
0!
0#
0^
0[
0\
1_
#275000
1#
1[
1\
1`
1C
10
1a
0_
#280000
0#
0[
0\
#285000
1#
1[
1\
1b
0`
0C
1D
1/
00
1_
#290000
0#
0[
0\
#295000
1#
1[
1\
1`
1C
1c
10
0a
0_
1d
#300000
0#
0[
0\
#305000
1#
1[
1\
1e
0b
0`
0C
0D
1E
1.
0/
00
1_
#310000
0#
0[
0\
#315000
1#
1[
1\
1`
1C
10
1a
0_
#320000
0#
0[
0\
#325000
1#
1[
1\
1b
0`
0C
1D
1/
00
1_
#330000
0#
0[
0\
#335000
1#
1[
1\
1`
1C
1f
0c
10
0a
0_
1g
0d
#340000
0#
0[
0\
#345000
1#
1[
1\
1h
0e
0b
0`
0C
0D
0E
1F
0f
1-
0.
0/
00
1i
0g
1_
0i
1g
#350000
0#
0[
0\
#355000
1#
1[
1\
1`
1C
10
1a
0_
#360000
0#
0[
0\
#365000
1#
1[
1\
1b
0`
0C
1D
1#!
1/
00
1_
1'!
0$!
1(!
0%!
#370000
0#
0[
0\
#375000
1#
1[
1\
1)!
0&!
1`
1C
0O
1P
0'!
1$!
0#!
1c
1;
0<
10
1*!
0(!
0a
0_
0$!
0*!
1(!
1%!
1d
0%!
#380000
0#
0[
0\
#385000
1#
1[
1\
1e
0b
0`
0C
0D
1E
1.
0/
00
1_
#390000
0#
0[
0\
#395000
1#
1[
1\
1`
1C
10
1a
0_
#400000
0#
0[
0\
#405000
1#
1[
1\
1b
0`
0C
1D
1/
00
1_
#410000
0#
0[
0\
#415000
1#
1[
1\
1`
1C
1f
0c
10
0a
0_
1i
0g
0d
#420000
0#
0[
0\
#425000
1#
1[
1\
1j
0h
0e
0b
0`
0C
0D
0E
0F
1G
0!!
0f
1,
0-
0.
0/
00
1g
1_
0g
#430000
1!
0#
1^
0[
0\
0i
0_
#435000
1#
1[
1\
0j
0G
1!!
0,
#440000
0!
0#
0^
0[
0\
1_
#445000
1#
1[
1\
1`
1C
10
1a
0_
#450000
0#
0[
0\
#455000
1#
1[
1\
1b
0`
0C
1D
1/
00
1_
#460000
0#
0[
0\
#465000
1#
1[
1\
1`
1C
1c
10
0a
0_
1d
#470000
0#
0[
0\
#475000
1#
1[
1\
1e
0b
0`
0C
0D
1E
1.
0/
00
1_
#480000
1!
0#
1^
0[
0\
0d
0_
#485000
1#
1[
1\
0e
0E
0c
0.
#490000
0!
0#
0^
0[
0\
1_
#495000
1#
1[
1\
1`
1C
10
1a
0_
#500000
0#
0[
0\
#505000
1#
1[
1\
1b
0`
0C
1D
1/
00
1_
#510000
0#
0[
0\
#515000
1#
1[
1\
1`
1C
1c
10
0a
0_
1d
#520000
0#
0[
0\
#525000
1#
1[
1\
1e
0b
0`
0C
0D
1E
1.
0/
00
1_
#530000
0#
0[
0\
#535000
1#
1[
1\
1`
1C
10
1a
0_
#540000
0#
0[
0\
#545000
1#
1[
1\
1b
0`
0C
1D
1/
00
1_
#550000
0#
0[
0\
#555000
1#
1[
1\
1`
1C
1f
0c
10
0a
0_
1g
0d
#560000
0#
0[
0\
#565000
1#
1[
1\
1h
0e
0b
0`
0C
0D
0E
1F
0f
1-
0.
0/
00
1i
0g
1_
0i
1g
#570000
0#
0[
0\
#575000
1#
1[
1\
1`
1C
10
1a
0_
#580000
0#
0[
0\
#585000
1#
1[
1\
1b
0`
0C
1D
1#!
1/
00
1_
1$!
1%!
#590000
0#
0[
0\
#595000
1#
1[
1\
1&!
1`
1C
1O
1'!
0$!
0#!
1c
1<
10
0a
0_
0'!
1$!
1*!
0(!
0%!
1d
0*!
1(!
1%!
#600000
0#
0[
0\
#605000
1#
1[
1\
1e
0b
0`
0C
0D
1E
1.
0/
00
1_
#610000
0#
0[
0\
#615000
1#
1[
1\
1`
1C
10
1a
0_
#620000
0#
0[
0\
#625000
1#
1[
1\
1b
0`
0C
1D
1/
00
1_
#630000
0#
0[
0\
#635000
1#
1[
1\
1`
1C
1f
0c
10
0a
0_
1i
0g
0d
#640000
0#
0[
0\
#645000
1#
1[
1\
1j
0h
0e
0b
0`
0C
0D
0E
0F
1G
0!!
0f
1,
0-
0.
0/
00
1g
1_
0g
#650000
0#
0[
0\
#655000
1#
1[
1\
1`
1C
10
1a
0_
#660000
0#
0[
0\
#665000
1#
1[
1\
1b
0`
0C
1D
1/
00
1_
#670000
0#
0[
0\
#675000
1#
1[
1\
1`
1C
1c
10
0a
0_
1d
#680000
0#
0[
0\
#685000
1#
1[
1\
1e
0b
0`
0C
0D
1E
1.
0/
00
1_
#690000
0#
0[
0\
#695000
1#
1[
1\
1`
1C
10
1a
0_
#700000
0#
0[
0\
#705000
1#
1[
1\
1b
0`
0C
1D
1/
00
1_
#710000
0#
0[
0\
#715000
1#
1[
1\
1`
1C
1f
0c
10
0a
0_
1g
0d
#720000
0#
0[
0\
#725000
1#
1[
1\
1h
0e
0b
0`
0C
0D
0E
1F
1k
0f
1-
0.
0/
00
0i
0g
1_
0k
1l
1i
1g
0l
#730000
0#
0[
0\
#735000
1#
1[
1\
1`
1C
10
1a
0_
#740000
0#
0[
0\
#745000
1#
1[
1\
1b
0`
0C
1D
1#!
1/
00
1_
#750000
0#
0[
0\
#755000
1#
1[
1\
1`
1C
0#!
1c
10
0a
0_
1d
#760000
0#
0[
0\
#765000
1#
1[
1\
1e
0b
0`
0C
0D
1E
1.
0/
00
1_
#770000
0#
0[
0\
#775000
1#
1[
1\
1`
1C
10
1a
0_
#780000
0#
0[
0\
#785000
1#
1[
1\
1b
0`
0C
1D
1/
00
1_
#790000
0#
0[
0\
#795000
1#
1[
1\
1`
1C
1f
0c
10
0a
0_
1k
0i
0g
0d
1l
#800000
0#
0[
0\
#805000
1#
1[
1\
1m
0j
0h
0e
0b
0`
0C
0D
0E
0F
0G
1H
0f
1+
0,
0-
0.
0/
00
1g
1_
0g
#810000
0#
0[
0\
#815000
1#
1[
1\
1`
1C
10
1a
0_
#820000
0#
0[
0\
#825000
1#
1[
1\
1b
0`
0C
1D
1/
00
1_
#830000
0#
0[
0\
#835000
1#
1[
1\
1`
1C
1c
10
0a
0_
1d
#840000
0#
0[
0\
#845000
1#
1[
1\
1e
0b
0`
0C
0D
1E
1.
0/
00
1_
#850000
0#
0[
0\
#855000
1#
1[
1\
1`
1C
10
1a
0_
#860000
0#
0[
0\
#865000
1#
1[
1\
1b
0`
0C
1D
1/
00
1_
#870000
0#
0[
0\
#875000
1#
1[
1\
1`
1C
1f
0c
10
0a
0_
1g
0d
#880000
0#
0[
0\
#885000
1#
1[
1\
1h
0e
0b
0`
0C
0D
0E
1F
0f
1-
0.
0/
00
1i
0g
1_
0i
1g
#890000
0#
0[
0\
#895000
1#
1[
1\
1`
1C
10
1a
0_
#900000
0#
0[
0\
#905000
1#
1[
1\
1b
0`
0C
1D
1#!
1/
00
1_
#910000
0#
0[
0\
#915000
1#
1[
1\
1`
1C
0#!
1c
10
0a
0_
1d
#920000
0#
0[
0\
#925000
1#
1[
1\
1e
0b
0`
0C
0D
1E
1.
0/
00
1_
#930000
0#
0[
0\
#935000
1#
1[
1\
1`
1C
10
1a
0_
#940000
0#
0[
0\
#945000
1#
1[
1\
1b
0`
0C
1D
1/
00
1_
#950000
0#
0[
0\
#955000
1#
1[
1\
1`
1C
1f
0c
10
0a
0_
1i
0g
0d
#960000
0#
0[
0\
#965000
1#
1[
1\
1j
0h
0e
0b
0`
0C
0D
0E
0F
1G
0f
1,
0-
0.
0/
00
1g
1_
0g
#970000
0#
0[
0\
#975000
1#
1[
1\
1`
1C
10
1a
0_
#980000
0$
0#
0]
0[
0\
0a
1_
#985000
1#
1[
1\
#990000
0#
0[
0\
#995000
1#
1[
1\
